simulation/qsim/main.msim.vcd
$comment
	File created using the following command:
		vcd file main.msim.vcd -direction
$end
$date
	Wed Jun 07 12:09:11 2023
$end
$version
	ModelSim Version 10.1d
$end
$timescale
	1ps
$end
$scope module mux8_16bit_vlg_vec_tst $end
$var reg 16 ! A [15:0] $end
$var reg 16 " B [15:0] $end
$var reg 16 # C [15:0] $end
$var reg 16 $ D [15:0] $end
$var reg 16 % E [15:0] $end
$var reg 16 & F [15:0] $end
$var reg 16 ' G [15:0] $end
$var reg 16 ( H [15:0] $end
$var reg 3 ) S [2:0] $end
$var wire 1 * O [15] $end
$var wire 1 + O [14] $end
$var wire 1 , O [13] $end
$var wire 1 - O [12] $end
$var wire 1 . O [11] $end
$var wire 1 / O [10] $end
$var wire 1 0 O [9] $end
$var wire 1 1 O [8] $end
$var wire 1 2 O [7] $end
$var wire 1 3 O [6] $end
$var wire 1 4 O [5] $end
$var wire 1 5 O [4] $end
$var wire 1 6 O [3] $end
$var wire 1 7 O [2] $end
$var wire 1 8 O [1] $end
$var wire 1 9 O [0] $end
$var wire 1 : sampler $end
$scope module i1 $end
$var wire 1 ; gnd $end
$var wire 1 < vcc $end
$var wire 1 = unknown $end
$var tri1 1 > devclrn $end
$var tri1 1 ? devpor $end
$var tri1 1 @ devoe $end
$var wire 1 A inst2|inst|inst|inst2~0_combout $end
$var wire 1 B inst2|inst|inst|inst2~1_combout $end
$var wire 1 C inst2|inst|inst|inst2~2_combout $end
$var wire 1 D inst2|inst|inst|inst2~3_combout $end
$var wire 1 E inst2|inst|inst|inst2~4_combout $end
$var wire 1 F inst2|inst|inst1|inst2~0_combout $end
$var wire 1 G inst2|inst|inst1|inst2~1_combout $end
$var wire 1 H inst2|inst|inst1|inst2~2_combout $end
$var wire 1 I inst2|inst|inst1|inst2~3_combout $end
$var wire 1 J inst2|inst|inst1|inst2~4_combout $end
$var wire 1 K inst2|inst|inst2|inst2~0_combout $end
$var wire 1 L inst2|inst|inst2|inst2~1_combout $end
$var wire 1 M inst2|inst|inst2|inst2~2_combout $end
$var wire 1 N inst2|inst|inst2|inst2~3_combout $end
$var wire 1 O inst2|inst|inst2|inst2~4_combout $end
$var wire 1 P inst2|inst|inst3|inst2~0_combout $end
$var wire 1 Q inst2|inst|inst3|inst2~1_combout $end
$var wire 1 R inst2|inst|inst3|inst2~2_combout $end
$var wire 1 S inst2|inst|inst3|inst2~3_combout $end
$var wire 1 T inst2|inst|inst3|inst2~4_combout $end
$var wire 1 U inst2|inst1|inst|inst2~0_combout $end
$var wire 1 V inst2|inst1|inst|inst2~1_combout $end
$var wire 1 W inst2|inst1|inst|inst2~2_combout $end
$var wire 1 X inst2|inst1|inst|inst2~3_combout $end
$var wire 1 Y inst2|inst1|inst|inst2~4_combout $end
$var wire 1 Z inst2|inst1|inst1|inst2~0_combout $end
$var wire 1 [ inst2|inst1|inst1|inst2~1_combout $end
$var wire 1 \ inst2|inst1|inst1|inst2~2_combout $end
$var wire 1 ] inst2|inst1|inst1|inst2~3_combout $end
$var wire 1 ^ inst2|inst1|inst1|inst2~4_combout $end
$var wire 1 _ inst2|inst1|inst2|inst2~0_combout $end
$var wire 1 ` inst2|inst1|inst2|inst2~1_combout $end
$var wire 1 a inst2|inst1|inst2|inst2~2_combout $end
$var wire 1 b inst2|inst1|inst2|inst2~3_combout $end
$var wire 1 c inst2|inst1|inst2|inst2~4_combout $end
$var wire 1 d inst2|inst1|inst3|inst2~0_combout $end
$var wire 1 e inst2|inst1|inst3|inst2~1_combout $end
$var wire 1 f inst2|inst1|inst3|inst2~2_combout $end
$var wire 1 g inst2|inst1|inst3|inst2~3_combout $end
$var wire 1 h inst2|inst1|inst3|inst2~4_combout $end
$var wire 1 i inst2|inst2|inst|inst2~0_combout $end
$var wire 1 j inst2|inst2|inst|inst2~1_combout $end
$var wire 1 k inst2|inst2|inst|inst2~2_combout $end
$var wire 1 l inst2|inst2|inst|inst2~3_combout $end
$var wire 1 m inst2|inst2|inst|inst2~4_combout $end
$var wire 1 n inst2|inst2|inst1|inst2~0_combout $end
$var wire 1 o inst2|inst2|inst1|inst2~1_combout $end
$var wire 1 p inst2|inst2|inst1|inst2~2_combout $end
$var wire 1 q inst2|inst2|inst1|inst2~3_combout $end
$var wire 1 r inst2|inst2|inst1|inst2~4_combout $end
$var wire 1 s inst2|inst2|inst2|inst2~0_combout $end
$var wire 1 t inst2|inst2|inst2|inst2~1_combout $end
$var wire 1 u inst2|inst2|inst2|inst2~2_combout $end
$var wire 1 v inst2|inst2|inst2|inst2~3_combout $end
$var wire 1 w inst2|inst2|inst2|inst2~4_combout $end
$var wire 1 x inst2|inst2|inst3|inst2~0_combout $end
$var wire 1 y inst2|inst2|inst3|inst2~1_combout $end
$var wire 1 z inst2|inst2|inst3|inst2~2_combout $end
$var wire 1 { inst2|inst2|inst3|inst2~3_combout $end
$var wire 1 | inst2|inst2|inst3|inst2~4_combout $end
$var wire 1 } inst2|inst3|inst|inst2~0_combout $end
$var wire 1 ~ inst2|inst3|inst|inst2~1_combout $end
$var wire 1 !! inst2|inst3|inst|inst2~2_combout $end
$var wire 1 "! inst2|inst3|inst|inst2~3_combout $end
$var wire 1 #! inst2|inst3|inst|inst2~4_combout $end
$var wire 1 $! inst2|inst3|inst1|inst2~0_combout $end
$var wire 1 %! inst2|inst3|inst1|inst2~1_combout $end
$var wire 1 &! inst2|inst3|inst1|inst2~2_combout $end
$var wire 1 '! inst2|inst3|inst1|inst2~3_combout $end
$var wire 1 (! inst2|inst3|inst1|inst2~4_combout $end
$var wire 1 )! inst2|inst3|inst2|inst2~0_combout $end
$var wire 1 *! inst2|inst3|inst2|inst2~1_combout $end
$var wire 1 +! inst2|inst3|inst2|inst2~2_combout $end
$var wire 1 ,! inst2|inst3|inst2|inst2~3_combout $end
$var wire 1 -! inst2|inst3|inst2|inst2~4_combout $end
$var wire 1 .! inst2|inst3|inst3|inst2~0_combout $end
$var wire 1 /! inst2|inst3|inst3|inst2~1_combout $end
$var wire 1 0! inst2|inst3|inst3|inst2~2_combout $end
$var wire 1 1! inst2|inst3|inst3|inst2~3_combout $end
$var wire 1 2! inst2|inst3|inst3|inst2~4_combout $end
$var wire 1 3! S~combout [2] $end
$var wire 1 4! S~combout [1] $end
$var wire 1 5! S~combout [0] $end
$var wire 1 6! H~combout [15] $end
$var wire 1 7! H~combout [14] $end
$var wire 1 8! H~combout [13] $end
$var wire 1 9! H~combout [12] $end
$var wire 1 :! H~combout [11] $end
$var wire 1 ;! H~combout [10] $end
$var wire 1 <! H~combout [9] $end
$var wire 1 =! H~combout [8] $end
$var wire 1 >! H~combout [7] $end
$var wire 1 ?! H~combout [6] $end
$var wire 1 @! H~combout [5] $end
$var wire 1 A! H~combout [4] $end
$var wire 1 B! H~combout [3] $end
$var wire 1 C! H~combout [2] $end
$var wire 1 D! H~combout [1] $end
$var wire 1 E! H~combout [0] $end
$var wire 1 F! G~combout [15] $end
$var wire 1 G! G~combout [14] $end
$var wire 1 H! G~combout [13] $end
$var wire 1 I! G~combout [12] $end
$var wire 1 J! G~combout [11] $end
$var wire 1 K! G~combout [10] $end
$var wire 1 L! G~combout [9] $end
$var wire 1 M! G~combout [8] $end
$var wire 1 N! G~combout [7] $end
$var wire 1 O! G~combout [6] $end
$var wire 1 P! G~combout [5] $end
$var wire 1 Q! G~combout [4] $end
$var wire 1 R! G~combout [3] $end
$var wire 1 S! G~combout [2] $end
$var wire 1 T! G~combout [1] $end
$var wire 1 U! G~combout [0] $end
$var wire 1 V! F~combout [15] $end
$var wire 1 W! F~combout [14] $end
$var wire 1 X! F~combout [13] $end
$var wire 1 Y! F~combout [12] $end
$var wire 1 Z! F~combout [11] $end
$var wire 1 [! F~combout [10] $end
$var wire 1 \! F~combout [9] $end
$var wire 1 ]! F~combout [8] $end
$var wire 1 ^! F~combout [7] $end
$var wire 1 _! F~combout [6] $end
$var wire 1 `! F~combout [5] $end
$var wire 1 a! F~combout [4] $end
$var wire 1 b! F~combout [3] $end
$var wire 1 c! F~combout [2] $end
$var wire 1 d! F~combout [1] $end
$var wire 1 e! F~combout [0] $end
$var wire 1 f! E~combout [15] $end
$var wire 1 g! E~combout [14] $end
$var wire 1 h! E~combout [13] $end
$var wire 1 i! E~combout [12] $end
$var wire 1 j! E~combout [11] $end
$var wire 1 k! E~combout [10] $end
$var wire 1 l! E~combout [9] $end
$var wire 1 m! E~combout [8] $end
$var wire 1 n! E~combout [7] $end
$var wire 1 o! E~combout [6] $end
$var wire 1 p! E~combout [5] $end
$var wire 1 q! E~combout [4] $end
$var wire 1 r! E~combout [3] $end
$var wire 1 s! E~combout [2] $end
$var wire 1 t! E~combout [1] $end
$var wire 1 u! E~combout [0] $end
$var wire 1 v! D~combout [15] $end
$var wire 1 w! D~combout [14] $end
$var wire 1 x! D~combout [13] $end
$var wire 1 y! D~combout [12] $end
$var wire 1 z! D~combout [11] $end
$var wire 1 {! D~combout [10] $end
$var wire 1 |! D~combout [9] $end
$var wire 1 }! D~combout [8] $end
$var wire 1 ~! D~combout [7] $end
$var wire 1 !" D~combout [6] $end
$var wire 1 "" D~combout [5] $end
$var wire 1 #" D~combout [4] $end
$var wire 1 $" D~combout [3] $end
$var wire 1 %" D~combout [2] $end
$var wire 1 &" D~combout [1] $end
$var wire 1 '" D~combout [0] $end
$var wire 1 (" C~combout [15] $end
$var wire 1 )" C~combout [14] $end
$var wire 1 *" C~combout [13] $end
$var wire 1 +" C~combout [12] $end
$var wire 1 ," C~combout [11] $end
$var wire 1 -" C~combout [10] $end
$var wire 1 ." C~combout [9] $end
$var wire 1 /" C~combout [8] $end
$var wire 1 0" C~combout [7] $end
$var wire 1 1" C~combout [6] $end
$var wire 1 2" C~combout [5] $end
$var wire 1 3" C~combout [4] $end
$var wire 1 4" C~combout [3] $end
$var wire 1 5" C~combout [2] $end
$var wire 1 6" C~combout [1] $end
$var wire 1 7" C~combout [0] $end
$var wire 1 8" B~combout [15] $end
$var wire 1 9" B~combout [14] $end
$var wire 1 :" B~combout [13] $end
$var wire 1 ;" B~combout [12] $end
$var wire 1 <" B~combout [11] $end
$var wire 1 =" B~combout [10] $end
$var wire 1 >" B~combout [9] $end
$var wire 1 ?" B~combout [8] $end
$var wire 1 @" B~combout [7] $end
$var wire 1 A" B~combout [6] $end
$var wire 1 B" B~combout [5] $end
$var wire 1 C" B~combout [4] $end
$var wire 1 D" B~combout [3] $end
$var wire 1 E" B~combout [2] $end
$var wire 1 F" B~combout [1] $end
$var wire 1 G" B~combout [0] $end
$var wire 1 H" A~combout [15] $end
$var wire 1 I" A~combout [14] $end
$var wire 1 J" A~combout [13] $end
$var wire 1 K" A~combout [12] $end
$var wire 1 L" A~combout [11] $end
$var wire 1 M" A~combout [10] $end
$var wire 1 N" A~combout [9] $end
$var wire 1 O" A~combout [8] $end
$var wire 1 P" A~combout [7] $end
$var wire 1 Q" A~combout [6] $end
$var wire 1 R" A~combout [5] $end
$var wire 1 S" A~combout [4] $end
$var wire 1 T" A~combout [3] $end
$var wire 1 U" A~combout [2] $end
$var wire 1 V" A~combout [1] $end
$var wire 1 W" A~combout [0] $end
$upscope $end
$upscope $end
$enddefinitions $end
#0
$dumpvars
b1000001110001101 !
b1011001010100110 "
b1110000011101011 #
b110100011011010 $
b1101111010110 %
b100111000011000 &
b1110101000111011 '
b100111111000100 (
b11 )
19
18
07
16
05
14
13
12
01
00
0/
0.
0-
1,
1+
1*
x:
0;
1<
x=
1>
1?
1@
1A
0B
1C
1D
1E
1F
1G
1H
1I
1J
1K
0L
1M
1N
1O
1P
0Q
1R
0S
0T
1U
1V
1W
0X
0Y
1Z
1[
1\
0]
0^
1_
1`
1a
0b
0c
1d
1e
1f
0g
0h
1i
1j
1k
1l
1m
1n
1o
1p
1q
1r
1s
0t
1u
1v
1w
1x
0y
1z
0{
0|
1}
0~
1!!
1"!
1#!
1$!
1%!
1&!
0'!
0(!
1)!
0*!
1+!
1,!
1-!
1.!
0/!
10!
11!
12!
15!
14!
03!
0E!
0D!
1C!
0B!
0A!
0@!
1?!
1>!
1=!
1<!
1;!
1:!
09!
08!
17!
06!
1U!
1T!
0S!
1R!
1Q!
1P!
0O!
0N!
0M!
1L!
0K!
1J!
0I!
1H!
1G!
1F!
0e!
0d!
0c!
1b!
1a!
0`!
0_!
0^!
0]!
1\!
1[!
1Z!
0Y!
0X!
1W!
0V!
0u!
1t!
1s!
0r!
1q!
0p!
1o!
1n!
1m!
1l!
0k!
1j!
1i!
0h!
0g!
0f!
0'"
1&"
0%"
1$"
1#"
0""
1!"
1~!
0}!
0|!
0{!
1z!
0y!
1x!
1w!
0v!
17"
16"
05"
14"
03"
12"
11"
10"
0/"
0."
0-"
0,"
0+"
1*"
1)"
1("
0G"
1F"
1E"
0D"
0C"
1B"
0A"
1@"
0?"
1>"
0="
0<"
1;"
1:"
09"
18"
1W"
0V"
1U"
1T"
0S"
0R"
0Q"
1P"
1O"
1N"
0M"
0L"
0K"
0J"
0I"
1H"
$end
#5000
b1110001101 !
b10001110001101 !
b10101110001101 !
b10101100001101 !
b10101100101101 !
b10101100100101 !
b10101100100001 !
b1111001010100110 "
b1101001010100110 "
b1101101010100110 "
b1101100010100110 "
b1101100000100110 "
b1101100000000110 "
b1101100000000010 "
b110000011101011 #
b100000011101011 #
b100100011101011 #
b100100111101011 #
b100100101101011 #
b100100101001011 #
b100100101011011 #
b100100101011001 #
b1110100011011010 $
b1010100011011010 $
b1011100011011010 $
b1011000011011010 $
b1011001011011010 $
b1011001011111010 $
b1011001011101010 $
b1011001011101110 $
b1011001011101100 $
b1001101111010110 %
b1101101111010110 %
b1101100111010110 %
b1101100011010110 %
b1101100001010110 %
b1101100001010010 %
b1101100001010000 %
b1101100001010001 %
b111000011000 &
b10111000011000 &
b11111000011000 &
b11101000011000 &
b11101010011000 &
b11101010111000 &
b11101010111100 &
b11101010111110 &
b11101010111111 &
b110101000111011 '
b111101000111011 '
b111111000111011 '
b111110000111011 '
b111110100111011 '
b111110110111011 '
b111110111111011 '
b111110111011011 '
b111110111011111 '
b1100111111000100 (
b1000111111000100 (
b1010111111000100 (
b1011111111000100 (
b1011011111000100 (
b1011010111000100 (
b1011010011000100 (
b1011010011010100 (
b1011010011011100 (
b1011010011011110 (
b1011010011011111 (
b111 )
13!
1E!
1D!
1B!
1A!
0=!
0<!
0:!
19!
18!
07!
16!
1S!
0P!
1O!
1N!
1M!
0L!
1K!
1I!
0F!
1e!
1d!
1c!
1`!
1^!
0[!
1Y!
1X!
0W!
1u!
0t!
0s!
0n!
0m!
0l!
1g!
1f!
0&"
1%"
0#"
1""
1|!
0z!
1y!
0w!
1v!
06"
13"
02"
00"
1/"
1,"
0*"
0("
0E"
0B"
0@"
0>"
1<"
0:"
19"
0U"
0T"
1R"
0P"
1L"
1J"
0H"
0:
02!
0-!
1(!
0#!
0w
1h
1c
1^
1Y
0O
0E
1/!
1*!
1~
1y
0e
0`
0V
1Q
1L
0G
1B
0,!
1{
0v
0l
1g
1X
0N
0D
12!
1-!
1#!
1|
0h
0c
0Y
1T
1O
0J
1E
09
08
17
06
04
11
10
1/
1.
0,
0*
19
18
16
15
01
00
0.
1-
1,
0+
1*
#10000
b11101100100001 !
b11111100100001 !
b11111100100011 !
b101100000000010 "
b101100000010010 "
b101100000010011 "
b100101011001 #
b110101011001 #
b111101011001 #
b111101010001 #
b111101010000 #
b1001001011101100 $
b1001011011101100 $
b1001011111101100 $
b1001011101101100 $
b1001011100101100 $
b1001011100100100 $
b1001011100100101 $
b1111100001010001 %
b1110100001010001 %
b1110000001010001 %
b1110000001110001 %
b1110000001100001 %
b1110000001101001 %
b11101110111111 &
b11101111111111 &
b11101111110111 &
b111110111001111 '
b111110111001110 '
b101 )
b11111110100011 !
b11111110101011 !
b1100000010011 "
b1101000010011 "
b1101000110011 "
b1101000110111 "
b11101010000 #
b11111010000 #
b11111110000 #
b11111110010 #
b1011100100101 $
b1111100100101 $
b1110100100101 $
b1110100110101 $
b1110100110111 $
b1010000001101001 %
b1010001001101001 %
b1010001101101001 %
b11111111110111 &
b11111111110101 &
b11111111110100 &
b1111110111001110 '
b1111100111001110 '
b1111101111001110 '
b1111101101001110 '
b1111101100001110 '
b1111101100101110 '
b11010011011111 (
b111010011011111 (
b110010011011111 (
b110110011011111 (
b110110011001111 (
b110110011000111 (
b110110011000101 (
b110110011000100 (
0E!
0D!
0B!
0A!
1:!
09!
17!
06!
04!
0U!
0Q!
1P!
0O!
0N!
1L!
0K!
1F!
0e!
0d!
0b!
1_!
1]!
1[!
1r!
0q!
1p!
1m!
1l!
0j!
0i!
1h!
0g!
1'"
1&"
0$"
1#"
0!"
0~!
1}!
0|!
1{!
1z!
0x!
0v!
07"
16"
04"
12"
10"
1."
1-"
0,"
0)"
1G"
1E"
1C"
1B"
1>"
09"
08"
1V"
1T"
1P"
1M"
1K"
1:
1V
1G
00!
0.!
0+!
0)!
0&!
0!!
0}
0z
0u
1t
0p
0k
0f
1e
0a
1`
0\
0W
0R
0M
0H
0F
0C
0A
01!
1,!
0"!
1v
1l
1b
1]
0X
0I
1Y
1J
11!
0/!
0*!
1'!
0~
1w
0q
0l
0g
1h
1c
0]
1X
1S
0G
0B
02!
0-!
0#!
0J
0E
1.
1+
14
11
10
09
08
06
0+
0*
#15000
b111111110101011 !
b111111110111011 !
b111111110111010 !
b1101001110111 "
b1101001110101 "
b11011111110100 &
b1101101100101110 '
b1101001100101110 '
b1101001100100110 '
b110100011000100 (
b110100011100100 (
b110100011100000 (
b100 )
b111011110111010 !
b1001001110101 "
b1000011111110010 #
b1000011011110010 #
b1000011011100010 #
b101110100110111 $
b101110100110011 $
b1010001111101001 %
b1010001111101000 %
b111011111110100 &
b101011111110100 &
b101011101110100 &
b1100001100100110 '
b1100001100100010 '
b100100011100000 (
b100101011100000 (
b111001110111010 !
b1001001110100 "
b1100011011100010 #
b1100011011101010 #
b1100011011101011 #
b101100100110011 $
b101100110110011 $
b101100110110010 $
b1010001111111000 %
b101011100110100 &
b101011100111100 &
b1100001100110010 '
b1100001100110011 '
b110 )
b111001100111010 !
b111001100110010 !
b101001001110100 "
b101001001110000 "
b1100011001101011 #
b1101100110110010 $
b1101000110110010 $
b1101000110100010 $
b1010000111111000 %
b101011100111110 &
b101011100111111 &
b100001100110011 '
b100011100110011 '
b100010100110011 '
b100010110110011 '
b100010110010011 '
b101011100000 (
b1101011100000 (
b1001011100000 (
b1001011101000 (
b1001011101001 (
0u!
1q!
1n!
0l!
0'"
0%"
0#"
1~!
0{!
0z!
1w!
1v!
17"
14"
03"
00"
0/"
1)"
1("
05!
14!
1E!
0C!
1B!
1@!
1<!
0;!
0:!
19!
08!
07!
1U!
0S!
0R!
1Q!
0P!
1N!
0L!
1K!
0J!
0I!
0H!
0F!
1e!
1d!
1b!
0_!
0^!
0Z!
0X!
1W!
0G"
0F"
0E"
1A"
0<"
19"
0W"
0T"
1S"
0P"
0M"
0L"
1I"
0:
0x
0i
0_
1k
1H
1C
01!
0{
0,!
1+!
0'!
0$!
0v
1u
0s
0n
1f
0d
0b
0Z
0X
0U
0S
1R
0P
0K
1/!
1*!
0%!
0y
0e
0[
0V
0L
1G
1y
0`
1l
1I
1D
12!
0|
1-!
1,!
0(!
1v
0t
0o
1g
1e
1[
0Y
1S
0Q
0h
0^
0O
1J
1|
0c
0w
0r
1h
1^
0T
19
05
18
07
0.
01
0/
0,
1+
15
00
04
03
11
1/
0-
#20000
b111000100110010 !
b101001001111000 "
b1101011001101011 #
b1101011000101011 #
b1101011000101111 #
b1010010111111000 %
b1010010110111000 %
b1101011100111111 &
b1101010100111111 &
b1101010100101111 &
b10110010011 '
b10110010001 '
b1001001101001 (
b1001000101001 (
b101000100110010 !
b111001001111000 "
b111001011111000 "
b1111011000101111 #
b1101000110000010 $
b10010110111000 %
b10010110111100 %
b10010110111110 %
b1100010100101111 &
b1100010100001111 &
b10010010001 '
b100000100110010 !
b1111010000101111 #
b1111000110000010 $
b1111000110001010 $
b10110111110 %
b1010110111110 %
b1100010000001111 &
b111000011111000 "
b111000011011000 "
b1111110000101111 #
b1111110000101101 #
b1111001110001010 $
b101010110111110 %
b101010010111110 %
b1100000000001111 &
b10011010001 '
b1001000111001 (
b100000100100010 !
b111000010011000 "
b111000010011010 "
b1100100000001111 &
b1011000111001 (
b1011000111101 (
b1111110000111101 #
b1011001110001010 $
b101010010111111 %
b1000100000001111 &
b1010100000001111 &
b11011000111101 (
b100010100100010 !
b1111110000111100 #
b1011011110001010 $
b1010100001001111 &
b1010100001000111 &
b10011000001 '
b10011000000 '
b100010110100010 !
b100010110101010 !
b111000010011110 "
b1011111110001010 $
b1011111110011010 $
b1010100001000101 &
b1010100001000100 &
b11000000 '
b1011000000 '
b1011100000 '
b111011000111101 (
b110011000111101 (
b110111000111101 (
b110111000111100 (
1$"
1#"
0""
1|!
1{!
1z!
1x!
0w!
0E!
1C!
1A!
0?!
0>!
1;!
1:!
09!
18!
17!
0U!
0T!
0Q!
1P!
1O!
0M!
1L!
0K!
0G!
0e!
0d!
0b!
0a!
0`!
1_!
0]!
0\!
0[!
1Z!
0Y!
1X!
0W!
1V!
1u!
1t!
1s!
0o!
0m!
1k!
1i!
0h!
1g!
0f!
07"
06"
15"
13"
01"
0."
1,"
1+"
1*"
1F"
1E"
1D"
0B"
0A"
1@"
0>"
1:"
1T"
0S"
1P"
0N"
1M"
0K"
0J"
1:
1!!
1z
0u
1a
1\
1W
1M
0H
0/!
0y
1o
0[
0G
0*!
1t
0e
1`
1"!
1{
0v
1b
1]
1X
1N
0I
02!
0|
1r
0^
0J
0-!
1w
0h
1c
09
05
13
0/
0+
08
14
01
10
#25000
b111010010011110 "
b1100010110101010 !
b1100010110001010 !
b1100010110001110 !
b110111100111100 (
b10 )
b1011111111011010 $
b101110010111111 %
b1111110000011100 #
b110111100111110 (
b1000010110001110 !
b10001011100000 '
b10101011100000 '
b11 )
b111110010011110 "
b1111110100011100 #
b1011111111011110 $
b101110000111111 %
b1010100011000100 &
b10101011100100 '
b111110010011111 "
b1011111101011110 $
b1111110110011100 #
b11111101011110 $
b101111000111111 %
b1010101011100100 '
b1010101001100100 '
b110111100110110 (
b1110110110011100 #
b1110110111011100 #
b1110110111011000 #
b101111001111111 %
b1010101011000100 &
b110111110110110 (
b101110010011111 "
b1100110111011000 #
b1101111001111111 %
b1101111001111011 %
b1010101011100100 &
b1100111111011000 #
b11111101010110 $
b1111111001111011 %
b1110111001111011 %
b1010101111100100 &
b1100011111011000 #
b1010111001111011 %
b1010101000100100 '
b1000010110011110 !
b101110011011111 "
b101110011011101 "
b1010001111100100 &
b110101110110110 (
b1100011111001000 #
b100101110110110 (
b1000000110011110 !
b11101101010110 $
b1010001111101100 &
b1010101000110100 '
b1010101000110101 '
b1000000110010110 !
b101110011011001 "
b1010001111101110 &
b1010001111101111 &
b1010111000110101 '
b1010110000110101 '
b101101110110110 (
1e!
1d!
1b!
1`!
1^!
1]!
1\!
0Z!
1U!
1S!
1Q!
0O!
0N!
0L!
1K!
1J!
1H!
1F!
05"
03"
02"
11"
10"
1/"
1."
0,"
0+"
0*"
0s!
1o!
0n!
1l!
1j!
0i!
1h!
0g!
1f!
1%"
0$"
1!"
0~!
0{!
0v!
15!
03!
1D!
0B!
1>!
1=!
0;!
19!
08!
1U"
0T"
1S"
0R"
0M"
0I"
1H"
1G"
0F"
0E"
1A"
1="
1<"
0:"
0:
1.!
1)!
1}
1s
1i
1d
1_
1U
1/!
1%!
1y
0o
0j
0`
1[
1V
1L
1B
0{
1q
0X
0S
0N
1$!
1n
1P
1K
1F
1A
1&!
1p
11!
10!
0,!
1x
1u
1Z
1I
1H
1-!
1#!
1|
0w
0r
1h
1^
1Y
1T
1O
1E
0/!
1*!
1j
1e
1`
12!
0|
1r
0Y
0O
0T
1Q
0L
1G
0B
01!
0-!
0[
1J
18
16
15
04
03
11
1/
1.
1-
1,
1*
02!
19
05
13
0.
0,
0-
08
1+
09
#30000
b1000000111010110 !
b100110011011001 "
b1100110011011001 "
b1100110011001001 "
b11101001010110 $
b1010111001110011 %
b1000000111010111 !
b101101110010110 (
b100011111001000 #
b101100110010110 (
b11111001000 #
b11101001010111 $
b1 )
b1000001111010111 !
b1100110011000001 "
b1010101001110011 %
b1110110000110101 '
b101100111010110 (
b1010001111010111 !
b11101001110111 $
b1010101001110001 %
b1011001111101111 &
b1110110100110101 '
b1011001111010111 !
b1010101101110001 %
b101100111000110 (
b1010101101110000 %
b1011001110101111 &
b1011001101010111 !
b1110110100010101 '
b1100111000110 (
b101 )
b11101000110111 $
b1010001101110000 %
b11111101000 #
b1100111000100 (
b1111001101010111 !
b1100110100010101 '
b1100010100010101 '
b11011101000 #
b11101000110011 $
b1010001111110000 %
b1011001100101111 &
b1100110011000000 "
b1011101000110011 $
b1010000111110000 %
b1100010110010101 '
b1100111001100 (
b1011011101000 #
b1011000100101111 &
b1110110011000000 "
b10000111110000 %
b1011000100001111 &
b1011101000111011 $
b111110000 %
b1000111110000 %
b1111011101000 #
b101000111110000 %
b1100010111010101 '
b1110110010000000 "
b1011100100001111 &
b1111011111000 #
b11100111001100 (
b1011111000111011 $
b1100010111000101 '
b1011100100001101 &
b1100000111000101 '
b1100001111000101 '
b10100111001100 (
0d!
0`!
0_!
0^!
0\!
1Z!
1Y!
0Q!
0P!
1O!
1N!
1M!
1L!
0K!
0J!
0H!
1G!
04!
13!
13"
12"
0/"
1,"
1+"
0)"
0("
0D!
1B!
0A!
0@!
1?!
0<!
09!
18!
07!
0u!
0t!
0r!
1n!
1m!
0l!
0k!
0j!
1i!
0h!
1g!
0f!
1'"
0%"
1$"
1""
0!"
0}!
1{!
1v!
0G"
0D"
0C"
0A"
0;"
1:"
18"
1W"
1Q"
0P"
1N"
1K"
1J"
1I"
1:
0)!
0s
0n
0i
0_
1o
1[
1L
00!
1/!
0+!
0&!
0!!
1~
0z
0x
0u
0p
0k
0f
0a
0\
0Z
0W
0R
0M
0H
0F
0C
1B
1-!
1(!
0#!
1|
1w
0r
0^
1Y
1T
0E
1{
1v
0g
1X
1S
0I
0D
0*!
0t
0o
0j
0`
1r
1^
1O
12!
0"!
1#!
0{
0y
0v
0q
0b
0[
0S
1N
1I
0G
1D
1E
18
17
06
15
14
03
0/
1.
1-
0*
0-!
0w
0r
0m
0c
0|
0^
0J
13
1/
1,
19
16
1*
08
04
03
02
00
05
0/
0+
#35000
b1111001001010111 !
b1010111000111011 $
b1011100100001001 &
b1101011111000 #
b1010110010000000 "
b1011100100011001 &
b1010111010000000 "
b1101011111010 #
b1011110100011001 &
b1110111000111011 $
b1111110100011001 &
b1101011111011 #
b1110011000111011 $
b10100111001101 (
b1010101010000000 "
b111001001010111 !
b111001001110111 !
b10100011001101 (
b1010001010000000 "
b1110011010111011 $
b100001111000101 '
b1101010111011 #
b11101010111011 #
b101000111110100 %
b11100010111011 #
b1111110000011001 &
b1111110000010001 &
b111001001111111 !
b1111110000010000 &
b1011001010000000 "
b1011001010010000 "
b111001001111110 !
b1011100010111011 #
b10101011001101 (
b111000001111110 !
b1011001010011000 "
b101010111110100 %
b10101010001101 (
b101010111110110 %
b100001011000101 '
b110000001111110 !
b101010011110110 %
b1111110001010000 &
b100001011100101 '
b110101010001101 (
b1 )
b110101010001111 (
b10000001111110 !
b110001011100101 '
b110011010111011 $
b1010100010111011 #
b1101010011110110 %
b1111110001110000 &
b110011010110011 $
b1111010011110110 %
b1011010011110110 %
b1111010001110000 &
b100101010001111 (
b110001010110011 $
b110000011100101 '
03!
1t!
1s!
0m!
1k!
1h!
0g!
1f!
1P!
0M!
0L!
1H!
0F!
1E!
1D!
0?!
0=!
1<!
08!
17!
1D"
1C"
1>"
0="
0<"
1;"
09"
17"
16"
01"
0."
0-"
0+"
1*"
1("
0e!
0c!
0b!
1a!
1`!
1_!
0]!
1[!
0Z!
1W!
0$"
1~!
0{!
0z!
0y!
1w!
0v!
0W"
1T"
1R"
0O"
0N"
0K"
0I"
0H"
0:
02!
0(!
0#!
1m
0h
1^
0T
1J
0$!
0d
1Z
1F
1"!
1{
1b
0]
0X
1S
0I
0.!
0}
1x
1s
1n
0U
0%!
0e
1[
1G
1#!
1|
1c
0^
0Y
1T
0J
0/!
0~
1y
1t
1o
0V
09
07
06
12
01
1/
0-
1+
16
15
10
0/
0.
1-
0+
